{
    "KPlugin": {
        "Authors": [
            {
                "Email": "philip.falkner@gmail.com, mgraesslin@kde.org",
                "Name": "Philip Falkner, Martin Gräßlin"
            }
        ],
        "Category": "Window Open/Close Animation",
        "Description": "Make windows smoothly fade in and out when they are shown or hidden",
        "Description[ar]": "اجعل النوافذ تظهر وتتلاشى بنعومة عند إظهاراها وإخفائها",
        "Description[az]": "Bağlanan pəncərə getdikcə şəffaflanşır (solur) və tam yox olur",
        "Description[bg]": "Постепенно избледняване при показване и скриване на прозорците",
        "Description[bs]": "Prozori glatko izranjaju i utapaju se pri pojavljivanju i sakrivanju",
        "Description[ca@valencia]": "Fa que les finestres s'encengen o s'apaguen de manera gradual quan es mostren o s'oculten",
        "Description[ca]": "Fa que les finestres s'encenguin o s'apaguin de manera gradual quan es mostren o s'oculten",
        "Description[cs]": "Nechá okna plynule zmizet/objevit se, pokud jsou zobrazeny resp. skryty",
        "Description[da]": "Få vinduer til at tone blidt ud og ind når de vises eller skjules",
        "Description[de]": "Blendet Fenster beim Öffnen/Schließen langsam ein bzw. aus.",
        "Description[el]": "Ομαλή εμφάνιση και απόκρυψη των παραθύρων",
        "Description[en_GB]": "Make windows smoothly fade in and out when they are shown or hidden",
        "Description[eo]": "Fenestroj glate maldissolvi/fordissolvi kiam ili videbliĝas aŭ kaŝiĝas",
        "Description[es]": "Hace que las ventanas aparezcan suavemente o se desvanezcan al mostrarlas u ocultarlas",
        "Description[et]": "Paneb aknad sujuvalt hääbuma või tugevnema, kui need peidetakse või nähtavale tuuakse",
        "Description[eu]": "Leihoak emeki agertzen eta desagertzen ditu haiek erakustean edo ezkutatzean",
        "Description[fi]": "Ikkunat tulevat näkyviin tai poistuvat näkyvistä pehmeästi häivyttäen",
        "Description[fr]": "Estompe ou fait apparaître en fondu les fenêtres lorsqu'elles sont affichées ou cachées",
        "Description[fy]": "Lit finters útstrutsen ferfage of opkomme as se te sjen binne of ferburgen wurde",
        "Description[ga]": "Leis seo, céimneoidh fuinneoga isteach agus amach agus iad á dtaispeáint nó á bhfolú",
        "Description[gl]": "Esvae/Fai opacas as xanelas con suavidade ao mostralas ou agochadas",
        "Description[gu]": "જ્યારે વિન્ડો બતાવવામાં અથવા છુપાવવામાં આવે છે ત્યારે તેમને સરળતાથી ઝાંખી અથવા પ્રકાશિત કરો",
        "Description[he]": "חשיפה והיעלמות חלקה של חלונות בעת הצגתם או הסתרתם",
        "Description[hi]": "जब विंडो को दिखाया या छुपाया जाता है तो उन्हें यह धीरे से फ़ीका करता है",
        "Description[hne]": "जब विंडो ल देखाय  या लुकाय जाथे  तहां ये मन ल, ए धीरे से फीका करथे",
        "Description[hr]": "Prozori će se lagano pojavljivati i nestajati kad ih se prikazuje ili sakriva",
        "Description[hu]": "Az ablakok folyamatosan áttűnő módon lesznek elrejtve és megjelenítve",
        "Description[ia]": "Face que fenestras pote dulcemente pallidir intra e foras quando illos es monstrate o celate",
        "Description[id]": "Buat jendela melesap-muncul dan melesap-hilang ketika jendela ditampilkan atau disembunyikan",
        "Description[is]": "Lætur glugga þynnast mjúklega inn eða út, þegar þeir eru endurheimtir eða faldir",
        "Description[it]": "Fai dissolvere e comparire gradualmente le finestre quando vengono mostrate o nascoste",
        "Description[ja]": "ウィンドウの表示/非表示の切り替えを滑らかにフェードイン/フェードアウトします",
        "Description[kk]": "Көрсеткенде/жасырғанда терезелер біртіндеп пайда/ғайып болады",
        "Description[km]": "ធ្វើ​ឲ្យ​បង្អួច​លេច​បន្តិច​ម្តង​/លិចបន្តិច​ម្តង​យ៉ាង​រលូន ពេល​ពួក​វា​ត្រូវ​បាន​បង្ហាញ ឬ​លាក់",
        "Description[kn]": "ಕಿಟಕಿಗಳನ್ನು ತೆರೆದಾಗ ಅಥವಾ ಅಡಗಿಸಿದಾಗ ಅವುಗಳು ಸುಗಮವಾಗಿ  ಒಳಮಸುಳು/ಹೊರಮಸುಳುವಂತೆ ಮಾಡುತ್ತದೆ",
        "Description[ko]": "창이 보여지거나 감춰질 때 부드러운 페이드 인/아웃을 사용합니다",
        "Description[lt]": "Sukuria efektą, kai langai, juos parodant ar paslepiant, glotniai pamažu atsiranda/išnyksta",
        "Description[lv]": "Liek logiem vienmērīgi izdzist un parādīties, kad tos parāda vai noslēpj",
        "Description[ml]": "ജാലകങ്ങള്‍ ഒളിപ്പിയ്ക്കുമ്പോഴോ കാണിയ്ക്കുമ്പോഴോ മങ്ങുന്നതും തെളിയുന്നതും പോലെ തോന്നിയ്ക്കുക",
        "Description[mr]": "चौकटी दर्शविताना किंवा लपविताना त्यांना गडद वा फीक्या करा",
        "Description[nb]": "Gjør at vinduer toner jevnt inn/ut når de vises eller skjules",
        "Description[nds]": "Finstern bi't Wiesen oder Versteken week in- oder utblennen",
        "Description[nl]": "Laat vensters vloeiend opkomen/vervagen als ze worden weergegeven of verborgen",
        "Description[nn]": "Ton vindauge inn og ut når dei vert viste eller gøymde",
        "Description[pa]": "ਜਦੋਂ ਵਿੰਡੋਜ਼ ਨੂੰ ਵੇਖਾਉਣਾ ਜਾਂ ਓਹਲੇ ਕਰਨਾ ਹੋਵੇ ਤਾਂ ਕੂਲੇ ਢੰਗ ਨਾਲ ਫੇਡ ਇਨ/ਆਉਟ ਕਰੋ",
        "Description[pl]": "Okna gładko wyłaniają się przy otwieraniu i zanikają przy zamykaniu",
        "Description[pt]": "Fazer com que as janelas apareçam/desapareçam suavemente quando aparecem ou ficam escondidas",
        "Description[pt_BR]": "Faz as janelas aparecerem/desaparecerem suavemente quando são exibidas ou ocultadas",
        "Description[ro]": "Face ferestrele să se (de)coloreze când sunt arătate sau ascunse",
        "Description[ru]": "Закрывающиеся окна будут становиться всё более прозрачными, а потом совсем исчезать",
        "Description[si]": "පෙන්වන හා සඟවන විට කවුළු විවර්‍ණය කිරීම හා නොකිරීම සිදු කරන්න",
        "Description[sk]": "Okná sa plynule objavia/zmiznú pri ich zobrazení alebo skrytí",
        "Description[sl]": "Okna se prikažejo in izginejo postopoma",
        "Description[sr@ijekavian]": "Прозори глатко израњају и утапају се при појављивању и сакривању",
        "Description[sr@ijekavianlatin]": "Prozori glatko izranjaju i utapaju se pri pojavljivanju i sakrivanju",
        "Description[sr@latin]": "Prozori glatko izranjaju i utapaju se pri pojavljivanju i sakrivanju",
        "Description[sr]": "Прозори глатко израњају и утапају се при појављивању и сакривању",
        "Description[sv]": "Gör att fönster mjukt tonas in eller ut när de visas eller döljs",
        "Description[ta]": "சாளரங்களை காட்டும்போது அவற்றிற்கு படிப்படியாக ஒளிகூட்டி, மறைக்கும்போது அவற்றை மங்கசெய்து மறைக்கும்",
        "Description[th]": "ทำให้หน้าต่างค่อย ๆ ชัดหรือค่อย ๆ จางหายเมื่อมีการแสดงหรือซ่อนหน้าต่าง",
        "Description[tr]": "Pencereler gösterilirken pürüzsüz bir şekilde belirginleştir, gizlenirken pürüzsüz bir şekilde soldur",
        "Description[ug]": "كۆزنەكنى كۆرسەتكەن ياكى يوشۇرغاندا كۆزنەكنى تەكشى سۇسلاشتۇر",
        "Description[uk]": "Плавна поява або зникнення вікон",
        "Description[vi]": "Làm cửa sổ hiện dần và mờ dần một cách êm dịu khi chúng hiện ra và biến mất",
        "Description[wa]": "Fé blawi/disblawi doûçmint les finiesses cwand on les mostere ou k' on les catche",
        "Description[x-test]": "xxMake windows smoothly fade in and out when they are shown or hiddenxx",
        "Description[zh_CN]": "窗口显示/隐藏时呈现渐入渐出过渡动效",
        "Description[zh_TW]": "顯示或隱藏視窗時以淡入、淡出方式呈現",
        "EnabledByDefault": false,
        "Icon": "preferences-system-windows-effect-fade",
        "Id": "kwin4_effect_fade",
        "License": "GPL",
        "Name": "Fade",
        "Name[af]": "Vervaag",
        "Name[ar]": "التلاشي",
        "Name[az]": "Solmaq",
        "Name[be]": "Павольнае знікненне",
        "Name[bg]": "Избледняване",
        "Name[bn]": "ফেড",
        "Name[bs]": "Utapanje",
        "Name[ca@valencia]": "Apagat gradual",
        "Name[ca]": "Apagat gradual",
        "Name[cs]": "Blednutí",
        "Name[da]": "Udtone",
        "Name[de]": "Verblassen",
        "Name[el]": "Ομαλή εμφάνιση",
        "Name[en_GB]": "Fade",
        "Name[eo]": "Dissolvi",
        "Name[es]": "Fundido",
        "Name[et]": "Hääbumine",
        "Name[eu]": "Desagertzea",
        "Name[fa]": "محو کردن",
        "Name[fi]": "Häivytys",
        "Name[fr]": "Fondu",
        "Name[fy]": "Litte ferfage",
        "Name[ga]": "Céimnigh",
        "Name[gl]": "Esvaer",
        "Name[gu]": "પીગળવું",
        "Name[he]": "חשיפה והיעלמות",
        "Name[hi]": "फीका",
        "Name[hne]": "फीका",
        "Name[hr]": "Lagano pojavljivanje",
        "Name[hu]": "Fokozatos átmenet",
        "Name[ia]": "Pallidi",
        "Name[id]": "Fade",
        "Name[is]": "Þynna út",
        "Name[it]": "Dissolvi",
        "Name[ja]": "フェード",
        "Name[ka]": "მინავლება",
        "Name[kk]": "Біртіндеп",
        "Name[km]": "លេច​បន្តិច​ម្ដងៗ​",
        "Name[kn]": "ಮಾಸು/ಮಸುಕುಗೊಳಿಸು",
        "Name[ko]": "페이드",
        "Name[lt]": "Išnykimas/Atsiradimas",
        "Name[lv]": "Izdzist",
        "Name[mai]": "फीका करू",
        "Name[mk]": "Избледување",
        "Name[ml]": "മങ്ങുക",
        "Name[mr]": "फीके",
        "Name[nb]": "Ton ut",
        "Name[nds]": "Utblennen",
        "Name[ne]": "फेड",
        "Name[nl]": "Opkomen/vervagen",
        "Name[nn]": "Ton inn og ut",
        "Name[pa]": "ਫਿੱਕਾ",
        "Name[pl]": "Zanikanie/wyłanianie",
        "Name[pt]": "Desvanecer",
        "Name[pt_BR]": "Desvanecer",
        "Name[ro]": "Estompare",
        "Name[ru]": "Растворение",
        "Name[se]": "Rievdat šearratvuođa",
        "Name[si]": "විවර්ණ",
        "Name[sk]": "Zoslabiť",
        "Name[sl]": "Pojavljanje in pojemanje",
        "Name[sr@ijekavian]": "Утапање",
        "Name[sr@ijekavianlatin]": "Utapanje",
        "Name[sr@latin]": "Utapanje",
        "Name[sr]": "Утапање",
        "Name[sv]": "Tona",
        "Name[ta]": "மங்கசெய்",
        "Name[te]": "ఫేడ్",
        "Name[th]": "ค่อย ๆ ชัด/ค่อย ๆ จางหาย",
        "Name[tr]": "Kaybolma",
        "Name[ug]": "سۇسلاشتۇر",
        "Name[uk]": "Згасання",
        "Name[uz@cyrillic]": "Сўниш",
        "Name[uz]": "Soʻnish",
        "Name[vi]": "Làm mờ dần",
        "Name[wa]": "Blåwe",
        "Name[x-test]": "xxFadexx",
        "Name[zh_CN]": "渐入渐出",
        "Name[zh_TW]": "淡出",
        "ServiceTypes": [
            "KWin/Effect"
        ],
        "Version": "0.2.0"
    },
    "X-KDE-Ordering": "60",
    "X-KWin-Exclusive-Category": "toplevel-open-close-animation",
    "X-Plasma-API": "javascript",
    "X-Plasma-MainScript": "code/main.js"
}
